C:\Users\ernes\Downloads\SaitynoModulis-master\PrimeFactorisation\src\main\java\InputParser.java
C:\Users\ernes\Downloads\SaitynoModulis-master\PrimeFactorisation\src\main\java\ResultsWriter.java
C:\Users\ernes\Downloads\SaitynoModulis-master\PrimeFactorisation\src\main\java\AppController.java
C:\Users\ernes\Downloads\SaitynoModulis-master\PrimeFactorisation\src\main\java\Factoriser.java
C:\Users\ernes\Downloads\SaitynoModulis-master\PrimeFactorisation\src\main\java\AppView.java
C:\Users\ernes\Downloads\SaitynoModulis-master\PrimeFactorisation\src\main\java\FactorisationTask.java
C:\Users\ernes\Downloads\SaitynoModulis-master\PrimeFactorisation\src\main\java\Main.java
